<svg width="408" height="408" viewBox="0 0 408 408" fill="none" xmlns="http://www.w3.org/2000/svg">
<g clip-path="url(#clip0_743_3577)">
<path d="M226.899 54.1637C235.055 63.0265 247.594 66.3861 259.09 62.789C276.462 57.3528 294.771 67.9232 298.75 85.6862C301.382 97.44 310.561 106.619 322.315 109.252C340.078 113.23 350.649 131.54 345.213 148.912C341.616 160.408 344.975 172.946 353.838 181.103C367.232 193.43 367.232 214.571 353.838 226.898C344.975 235.055 341.616 247.594 345.213 259.089C350.649 276.462 340.078 294.771 322.315 298.749C310.562 301.381 301.383 310.56 298.75 322.315C294.772 340.078 276.462 350.648 259.09 345.212C247.594 341.615 235.055 344.975 226.899 353.838C214.572 367.232 193.43 367.232 181.103 353.838C172.947 344.975 160.408 341.615 148.912 345.212C131.54 350.648 113.231 340.078 109.252 322.315C106.62 310.561 97.4411 301.382 85.6865 298.749C67.9236 294.771 57.3523 276.462 62.7894 259.089C66.3864 247.594 63.0268 235.055 54.1641 226.898C40.7695 214.571 40.7695 193.43 54.1641 181.103C63.0268 172.946 66.3864 160.408 62.7894 148.912C57.3531 131.54 67.9236 113.231 85.6865 109.252C97.4403 106.62 106.619 97.4408 109.252 85.6862C113.23 67.9232 131.54 57.352 148.912 62.789C160.408 66.3861 172.947 63.0265 181.103 54.1637C193.43 40.77 214.572 40.77 226.899 54.1637Z" fill="#31DDE9"/>
<path d="M353.836 181.103C344.973 172.946 341.613 160.408 345.211 148.912C350.647 131.54 340.077 113.231 322.314 109.252C310.56 106.62 301.381 97.4408 298.748 85.6862C294.946 68.7129 278.061 58.3178 261.409 62.1691C272.631 64.7836 282.034 73.5547 284.75 85.6862C287.383 97.44 296.562 106.619 308.316 109.252C326.079 113.23 336.65 131.54 331.213 148.912C327.616 160.408 330.976 172.946 339.838 181.103C353.233 193.43 353.233 214.571 339.838 226.898C330.976 235.055 327.616 247.594 331.213 259.089C336.649 276.462 326.079 294.771 308.316 298.749C296.562 301.381 287.383 310.561 284.75 322.315C282.033 334.447 272.631 343.219 261.409 345.832C278.061 349.684 294.946 339.288 298.748 322.315C301.38 310.561 310.559 301.382 322.314 298.749C340.077 294.771 350.648 276.462 345.211 259.089C341.614 247.594 344.973 235.055 353.836 226.898C367.23 214.571 367.23 193.43 353.836 181.103Z" fill="#2DB2BB"/>
<path d="M204.001 328.75C272.898 328.75 328.749 272.898 328.749 204.001C328.749 135.104 272.898 79.2524 204.001 79.2524C135.104 79.2524 79.252 135.104 79.252 204.001C79.252 272.898 135.104 328.75 204.001 328.75Z" fill="#FFD5ED"/>
<path d="M204.001 79.2515C200.842 79.2515 197.711 79.371 194.611 79.6021C259.123 84.4024 309.971 138.263 309.971 204C309.971 269.738 259.123 323.599 194.612 328.399C197.712 328.629 200.843 328.75 204.002 328.75C272.899 328.75 328.75 272.897 328.75 204.001C328.75 135.105 272.898 79.2515 204.001 79.2515Z" fill="#F998A5"/>
<path d="M184.863 210.373L159.378 184.887C154.481 179.99 146.542 179.99 141.646 184.887L125.006 201.527C120.109 206.424 120.109 214.363 125.006 219.259L167.637 261.891C176.473 270.727 190.797 270.727 199.633 261.891L282.997 178.527C287.894 173.63 287.894 165.691 282.997 160.795L267.585 145.383C262.688 140.486 254.749 140.486 249.853 145.383L184.863 210.373Z" fill="#FBFBFB"/>
<path d="M282.999 160.794L267.586 145.382C262.69 140.485 254.75 140.485 249.854 145.382L246.068 149.169C249.703 148.784 253.473 149.98 256.26 152.766L264.22 160.794C269.117 165.691 269.117 173.63 264.22 178.526L188.362 254.612C182.335 260.639 173.754 262.552 166.104 260.356L167.639 261.891C176.475 270.727 190.799 270.727 199.635 261.891L282.999 178.527C287.895 173.63 287.895 165.691 282.999 160.794Z" fill="#F1FDF9"/>
<path d="M218.782 74.1029C215.501 73.734 212.543 76.0935 212.174 79.3726C211.805 82.6525 214.165 85.6113 217.445 85.9802C277.49 92.7425 322.77 143.48 322.77 204C322.77 269.492 269.489 322.773 203.998 322.773C138.506 322.773 85.2255 269.492 85.2255 204C85.2255 143.559 130.44 92.8285 190.398 85.9978C193.677 85.624 196.033 82.6629 195.659 79.383C195.286 76.1031 192.328 73.7436 189.045 74.1213C123.044 81.6413 73.2725 137.476 73.2725 204C73.2725 276.083 131.915 334.726 203.998 334.726C276.08 334.726 334.723 276.083 334.723 204C334.723 137.39 284.879 81.5465 218.782 74.1029Z" fill="#1E1E50"/>
<path d="M350.913 257.304C348.021 248.062 350.757 237.853 357.882 231.295C365.492 224.291 369.857 214.343 369.857 204C369.857 193.657 365.492 183.709 357.882 176.705C350.757 170.147 348.021 159.938 350.913 150.696C354.002 140.825 352.807 130.027 347.636 121.07C342.465 112.113 333.71 105.679 323.618 103.419C314.169 101.303 306.695 93.8291 304.578 84.3799C302.318 74.2876 295.885 65.5332 286.928 60.3615C277.971 55.1898 267.173 53.9953 257.302 57.0848C248.06 59.9766 237.851 57.241 231.293 50.1162C224.289 42.5061 214.34 38.1409 203.998 38.1409C193.655 38.1409 183.706 42.5061 176.703 50.1154C170.145 57.241 159.937 59.9766 150.694 57.0848C140.823 53.9961 130.025 55.1898 121.068 60.3615C112.111 65.5324 105.677 74.2876 103.417 84.3799C101.301 93.8291 93.8269 101.303 84.3777 103.419C74.2854 105.679 65.531 112.113 60.3593 121.07C55.1876 130.027 53.9939 140.825 57.0826 150.696C59.9744 159.938 57.2388 170.147 50.114 176.705C42.5039 183.709 38.1387 193.657 38.1387 204C38.1387 214.343 42.5039 224.291 50.1132 231.295C57.2388 237.853 59.9744 248.062 57.0826 257.304C53.9939 267.175 55.1884 277.973 60.3593 286.93C65.5302 295.887 74.2854 302.321 84.3777 304.581C93.8269 306.697 101.301 314.171 103.417 323.62C105.677 333.712 112.111 342.467 121.068 347.639C130.025 352.809 140.823 354.005 150.694 350.915C159.938 348.024 170.145 350.759 176.703 357.884C183.706 365.494 193.655 369.859 203.998 369.859C214.34 369.859 224.289 365.494 231.293 357.885C237.851 350.759 248.061 348.023 257.302 350.915C267.171 354.003 277.971 352.809 286.928 347.639C295.885 342.468 302.318 333.712 304.578 323.62C306.695 314.171 314.169 306.697 323.618 304.581C333.71 302.321 342.465 295.887 347.636 286.93C352.808 277.973 354.002 267.175 350.913 257.304ZM339.506 260.874C341.63 267.663 340.841 274.794 337.285 280.953C333.729 287.113 327.947 291.362 321.006 292.917C307.064 296.04 296.038 307.066 292.915 321.008C291.36 327.949 287.112 333.73 280.951 337.287C274.791 340.844 267.66 341.632 260.872 339.508C247.235 335.24 232.173 339.277 222.499 349.79C217.682 355.024 211.111 357.907 203.999 357.907C196.886 357.907 190.316 355.025 185.499 349.79C178.383 342.06 168.356 337.831 158.125 337.831C154.442 337.831 150.734 338.38 147.125 339.508C140.338 341.631 133.206 340.843 127.046 337.287C120.886 333.731 116.637 327.95 115.083 321.008C111.96 307.066 100.933 296.04 86.9914 292.917C80.0507 291.362 74.2694 287.114 70.7122 280.953C67.1558 274.794 66.3669 267.663 68.4913 260.874C72.7578 247.239 68.7224 232.176 58.2094 222.501C52.9755 217.684 50.0925 211.114 50.0925 204.001C50.0925 196.888 52.9747 190.318 58.2094 185.501C68.7216 175.825 72.7578 160.763 68.4913 147.128C66.3669 140.339 67.1558 133.208 70.7122 127.048C74.2686 120.888 80.0499 116.639 86.9914 115.085C100.933 111.962 111.96 100.936 115.083 86.9936C116.637 80.0529 120.885 74.2716 127.046 70.7144C133.207 67.1572 140.339 66.3691 147.125 68.4935C160.76 72.76 175.823 68.7238 185.499 58.2116C190.316 52.9777 196.886 50.0947 203.999 50.0947C211.111 50.0947 217.682 52.9769 222.499 58.2116C232.175 68.7238 247.237 72.76 260.872 68.4935C267.659 66.3691 274.791 67.1572 280.951 70.7144C287.111 74.2708 291.36 80.0521 292.915 86.9936C296.038 100.936 307.064 111.962 321.006 115.085C327.947 116.639 333.728 120.888 337.285 127.048C340.841 133.208 341.63 140.339 339.506 147.128C335.239 160.763 339.275 175.825 349.788 185.501C355.022 190.318 357.905 196.888 357.905 204.001C357.905 211.114 355.022 217.684 349.788 222.501C339.275 232.176 335.239 247.239 339.506 260.874Z" fill="#1E1E50"/>
<path d="M350.37 61.9459C351.899 61.9459 353.429 61.3626 354.596 60.1952L404.585 10.2056C406.919 7.87156 406.919 4.0872 404.585 1.75395C402.251 -0.580094 398.467 -0.580094 396.134 1.75395L346.144 51.7435C343.81 54.0776 343.81 57.8619 346.144 60.1952C347.311 61.3618 348.84 61.9459 350.37 61.9459Z" fill="#1E1E50"/>
<path d="M406.125 83.6751C405.257 80.4908 401.972 78.6133 398.786 79.4827L373.792 86.3016C370.607 87.1702 368.73 90.4557 369.599 93.64C370.324 96.2976 372.733 98.0451 375.361 98.0451C375.882 98.0451 376.412 97.9766 376.938 97.8324L401.933 91.0135C405.117 90.1457 406.994 86.8594 406.125 83.6751Z" fill="#1E1E50"/>
<path d="M312.166 36.7398C312.693 36.884 313.222 36.9526 313.743 36.9526C316.371 36.9526 318.78 35.205 319.505 32.5474L326.324 7.55266C327.193 4.36835 325.316 1.08204 322.132 0.214243C318.948 -0.656742 315.662 1.22229 314.793 4.4066L307.975 29.4014C307.104 32.5857 308.981 35.8712 312.166 36.7398Z" fill="#1E1E50"/>
<path d="M53.3993 60.1952C54.5659 61.3618 56.0959 61.9459 57.6251 61.9459C59.1543 61.9459 60.6843 61.3626 61.8509 60.1952C64.185 57.8611 64.185 54.0768 61.8509 51.7435L11.8614 1.75395C9.52732 -0.580094 5.74296 -0.580094 3.40971 1.75395C1.07567 4.088 1.07567 7.87236 3.40971 10.2056L53.3993 60.1952Z" fill="#1E1E50"/>
<path d="M34.2046 86.3014L9.2098 79.4825C6.02549 78.6123 2.73917 80.4906 1.87138 83.6749C1.00278 86.8592 2.87942 90.1455 6.06374 91.0133L31.0585 97.8322C31.5853 97.9764 32.1144 98.0449 32.6355 98.0449C35.2636 98.0449 37.6726 96.2974 38.3977 93.6398C39.2655 90.4555 37.3889 87.17 34.2046 86.3014Z" fill="#1E1E50"/>
<path d="M88.4934 32.5471C89.2186 35.2047 91.6275 36.9522 94.2556 36.9522C94.776 36.9522 95.3059 36.8837 95.8326 36.7395C99.017 35.8709 100.894 32.5854 100.025 29.4011L93.2061 4.40627C92.3376 1.22276 89.0552 -0.656275 85.8677 0.213913C82.6834 1.08251 80.806 4.36802 81.6754 7.55233L88.4934 32.5471Z" fill="#1E1E50"/>
<path d="M354.596 347.807C352.262 345.473 348.477 345.473 346.144 347.807C343.81 350.141 343.81 353.926 346.144 356.259L396.134 406.249C397.3 407.415 398.83 407.999 400.359 407.999C401.889 407.999 403.419 407.416 404.585 406.249C406.919 403.915 406.919 400.13 404.585 397.797L354.596 347.807Z" fill="#1E1E50"/>
<path d="M401.932 316.988L376.937 310.169C373.751 309.3 370.468 311.177 369.599 314.361C368.73 317.546 370.607 320.832 373.791 321.7L398.786 328.519C399.313 328.663 399.842 328.731 400.363 328.731C402.991 328.731 405.4 326.984 406.125 324.326C406.994 321.142 405.116 317.856 401.932 316.988Z" fill="#1E1E50"/>
<path d="M319.505 375.454C318.636 372.271 315.351 370.392 312.167 371.262C308.982 372.13 307.105 375.416 307.974 378.6L314.793 403.595C315.518 406.253 317.927 408 320.555 408C321.076 408 321.605 407.932 322.132 407.787C325.317 406.919 327.194 403.633 326.325 400.449L319.505 375.454Z" fill="#1E1E50"/>
<path d="M53.3993 347.807L3.40971 397.797C1.07567 400.131 1.07567 403.915 3.40971 406.249C4.57634 407.415 6.10634 407.999 7.63554 407.999C9.16475 407.999 10.6947 407.416 11.8614 406.249L61.8509 356.259C64.185 353.925 64.185 350.141 61.8509 347.807C59.5169 345.473 55.7325 345.473 53.3993 347.807Z" fill="#1E1E50"/>
<path d="M31.0588 310.169L6.06401 316.988C2.8797 317.857 1.00226 321.142 1.87165 324.327C2.59681 326.984 5.00576 328.732 7.63385 328.732C8.15421 328.732 8.68414 328.663 9.21087 328.519L34.2057 321.7C37.39 320.832 39.2674 317.546 38.398 314.362C37.5302 311.177 34.2447 309.298 31.0588 310.169Z" fill="#1E1E50"/>
<path d="M95.8324 371.262C92.6481 370.393 89.3625 372.27 88.4939 375.454L81.6751 400.449C80.8065 403.633 82.6831 406.92 85.8674 407.788C86.3942 407.932 86.9233 408 87.4445 408C90.0726 408 92.4815 406.253 93.2067 403.595L100.026 378.6C100.894 375.417 99.0167 372.131 95.8324 371.262Z" fill="#1E1E50"/>
<path d="M229.729 223.34C227.395 225.674 227.395 229.459 229.729 231.792C232.063 234.126 235.848 234.126 238.181 231.792L287.221 182.752C290.718 179.255 292.645 174.606 292.645 169.659C292.645 164.713 290.718 160.064 287.221 156.568L271.809 141.155C264.589 133.937 252.843 133.937 245.625 141.155L184.86 201.919L163.601 180.659C160.104 177.162 155.455 175.236 150.509 175.236C145.563 175.236 140.914 177.162 137.416 180.659L120.777 197.299C117.28 200.796 115.354 205.445 115.354 210.391C115.354 215.337 117.28 219.986 120.777 223.483L163.409 266.115C168.984 271.691 176.308 274.479 183.632 274.479C190.956 274.479 198.28 271.691 203.856 266.115L218.552 251.42C220.886 249.086 220.886 245.301 218.552 242.968C216.218 240.634 212.433 240.634 210.1 242.968L195.404 257.664C188.913 264.154 178.351 264.154 171.86 257.664L129.229 215.031C127.989 213.792 127.307 212.144 127.307 210.392C127.307 208.639 127.989 206.991 129.229 205.752L145.868 189.113C147.108 187.873 148.756 187.191 150.508 187.191C152.26 187.191 153.908 187.873 155.148 189.113L180.634 214.598C182.968 216.932 186.752 216.932 189.085 214.598L254.076 149.608C256.634 147.05 260.798 147.049 263.356 149.608L278.769 165.021C280.009 166.26 280.691 167.908 280.691 169.66C280.691 171.413 280.008 173.061 278.769 174.3L229.729 223.34Z" fill="#1E1E50"/>
</g>
<defs>
<clipPath id="clip0_743_3577">
<rect width="408" height="408" fill="white"/>
</clipPath>
</defs>
</svg>
